{
	"providers": {
		"awscloudformation": {
			"AuthRoleName": "paradigmx-20181211112046-authRole",
			"UnauthRoleArn": "arn:aws:iam::443238992115:role/paradigmx-20181211112046-unauthRole",
			"AuthRoleArn": "arn:aws:iam::443238992115:role/paradigmx-20181211112046-authRole",
			"Region": "ca-central-1",
			"DeploymentBucketName": "paradigmx-20181211112046-deployment",
			"UnauthRoleName": "paradigmx-20181211112046-unauthRole",
			"StackName": "paradigmx-20181211112046",
			"StackId": "arn:aws:cloudformation:ca-central-1:443238992115:stack/paradigmx-20181211112046/19542b20-fd69-11e8-8ebc-504dce355a4a"
		}
	},
	"hosting": {
		"S3AndCloudFront": {
			"service": "S3AndCloudFront",
			"providerPlugin": "awscloudformation",
			"providerMetadata": {
				"s3TemplateURL": "https://s3.amazonaws.com/paradigmx-20181211112046-deployment/amplify-cfn-templates/hosting/template.json",
				"logicalId": "hostingS3AndCloudFront"
			},
			"lastPushTimeStamp": "2018-12-11T17:24:03.024Z",
			"output": {
				"S3BucketSecureURL": "https://paradigmx-20181211112231--hostingbucket.s3.amazonaws.com",
				"WebsiteURL": "http://paradigmx-20181211112231--hostingbucket.s3-website.ca-central-1.amazonaws.com",
				"Region": "ca-central-1",
				"HostingBucketName": "paradigmx-20181211112231--hostingbucket"
			},
			"lastPushDirHash": "pwvgdjTXG4P32Zca9SmJrxhxfjU="
		}
	}
}